[
    {
        "name": "Primeros pasos",
        "description": "Crea tu primer problema.",
        "color": "Light Blue",
        "criterion": "issues",
        "value": 1,
        "image": "figure.walk"
    },
    {
        "name": "Gran comienzo",
        "description": "Crea 10 problemas.",
        "color": "Light Blue",
        "criterion": "issues",
        "value": 10,
        "image": "hand.thumbsup.fill"
    },
    {
        "name": "Subiendo",
        "description": "Crea 20 problemas.",
        "color": "Light Blue",
        "criterion": "issues",
        "value": 20,
        "image": "tray.and.arrow.up.fill"
    },
    {
        "name": "Acelerando",
        "description": "Crea 50 problemas.",
        "color": "Light Blue",
        "criterion": "issues",
        "value": 50,
        "image": "speedometer"
    },
    {
        "name": "Haciendo olas",
        "description": "Crea 100 problemas.",
        "color": "Light Blue",
        "criterion": "issues",
        "value": 100,
        "image": "dot.radiowaves.left.and.right"
    },
    {
        "name": "Alto rendimiento",
        "description": "Crea 250 problemas.",
        "color": "Light Blue",
        "criterion": "issues",
        "value": 250,
        "image": "square.stack.3d.up.fill"
    },
    {
        "name": "Estrella",
        "description": "Crea 500 problemas.",
        "color": "Light Blue",
        "criterion": "issues",
        "value": 500,
        "image": "star.circle.fill"
    },
    {
        "name": "Campeón",
        "description": "Crea 1000 problemas.",
        "color": "Light Blue",
        "criterion": "issues",
        "value": 1000,
        "image": "crown.fill"
    },
    {
        "name": "Marcando casillas",
        "description": "Cierra tu primer problema.",
        "color": "Green",
        "criterion": "closed",
        "value": 1,
        "image": "checkmark.shield.fill"
    },
    {
        "name": "Vaivén",
        "description": "Cierra 10 problemas.",
        "color": "Green",
        "criterion": "closed",
        "value": 10,
        "image": "guitars.fill"
    },
    {
        "name": "20 es suficiente",
        "description": "Cierra 20 problemas.",
        "color": "Green",
        "criterion": "closed",
        "value": 20,
        "image": "20.square.fill"
    },
    {
        "name": "Diana!",
        "description": "Cierra 50 problemas.",
        "color": "Green",
        "criterion": "closed",
        "value": 50,
        "image": "target"
    },
    {
        "name": "Volando alto",
        "description": "Cierra 100 problemas.",
        "color": "Green",
        "criterion": "closed",
        "value": 100,
        "image": "airplane.circle.fill"
    },
    {
        "name": "¡Estás en racha!",
        "description": "Cierra 250 problemas.",
        "color": "Green",
        "criterion": "closed",
        "value": 250,
        "image": "flame.fill"
    },
    {
        "name": "Gran jefe",
        "description": "Cierra 500 problemas.",
        "color": "Green",
        "criterion": "closed",
        "value": 500,
        "image": "text.badge.checkmark"
    },
    {
        "name": "Boom!",
        "description": "Cierra 1000 problemas.",
        "color": "Green",
        "criterion": "closed",
        "value": 1000,
        "image": "bolt.circle.fill"
    },
    {
        "name": "Etiquetando",
        "description": "Has creado tu primera etiqueta.",
        "color": "Gold",
        "criterion": "tags",
        "value": 1,
        "image": "tag.fill"
    },
    {
        "name": "Etiquetador mediano",
        "description": "Has creado 10 etiquetas.",
        "color": "Gold",
        "criterion": "tags",
        "value": 10,
        "image": "tag.circle.fill"
    },
    {
        "name": "Gran etiquetador",
        "description": "Has creado 50 etiquetas.",
        "color": "Gold",
        "criterion": "tags",
        "value": 50,
        "image": "square.grid.3x1.folder.fill.badge.plus"
    },
    {
        "name": "Patrocinador",
        "description": "Has desbloqueado el modo premium.",
        "color": "Purple",
        "criterion": "unlock",
        "value": 0,
        "image": "dollarsign.square.fill"
    }
]
